1.Register User:- => ok

	Post parameter
		restaurant_name:Qrolic TEch
		restaurant_owner_name:Naresh Parmar
		restaurant_email:parmarnaresh@gmail.com
		mobile_number:123456789
		address:hello this is testing address
		password:123456

2.Login User => ok

	Post parameter
		user_email:parmarnaresh@gmail.com
		user_password:123456

3.Add User => ok

	Post Parameter
		user_name:Naresh Parmar
		user_email:parmarnaresh@gmail.com
		user_mobile:1234567890
		user_password:123456
		user_restaurant_id:1
		user_type:admin
		user_id:1 (update time)

4.get All User List => ok

	Restaurant_id

5.delete user => ok

	user_id

6.Add Table => ok

	table_name:table 1
	restaurant_id:1

7. Update Table => ok

	table_name:table 1
	restaurant_id:1
	Table_id:1

8. Get All Table => ok

	restaurant_id:1

9.Detele Table => ok

	Table_id:1

10.Add Menu => ok

	menu_name:Pizza
	menu_price:170
	restaurant_id:1


11.Update Menu => ok

	menu_name:Pizza
	menu_price:170
	restaurant_id:1
	menu_id:1

12.Delete Menu => ok

	Menu_id:1

13.Order list by status => ok

	Restaurant_id:-1
	Order_status:-running

14. Order Detail (item api) => ok

	Order_id:-1

15. Get Order By Date => ok


	restaurant_id:1
	order_status:running
	start_date:2020-04-09
	End_date:2020-04-09

16. Order Bye Table => ok

	restaurant_id:1
	order_status:running
	selected_date:2020-04-09
	Table_id:1

17 Delete Order => ok

	Order_id:1

18. Home Screen API => ok

	Restaurant_id:1
	Start_date:
	End_date:
	This api will use 

19.Order Status Change => ok

	order_id:3
	order_status:running

